// Mem file initialization records.
//
// SW Build 2644227 on Wed Sep  4 09:45:24 MDT 2019
// Vivado v2019.1.3 (64-bit)
// Copyright 1986-2019 Xilinx, Inc. All Rights Reserved.
// Created on Sunday November 24, 2019 - 03:44:29 pm, from:
//
//     Map file     - f:\OneDrive\BitBucket\Cjkeenan\LWC_Project\FPGA_implementation\crypto_final\crypto_final.srcs\sources_1\ip\cpu\bd_0\bd_3914.bmm
//     Data file(s) - f:/OneDrive/BitBucket/Cjkeenan/LWC_Project/FPGA_implementation/crypto_final/crypto_final.srcs/sources_1/ip/cpu/bd_0/ip/ip_0/data/mb_bootloop_le.elf
//
// Address space 'cpu_unit_inst_microblaze_I.cpu_unit_inst_lmb_bram_I_ADDR_SPACE', bit lane [31:0].
//
// Bus width = 32 bits, number of bus blocks = 1.

@00000000
    B8000000
