Copyright 1986-2019 Xilinx, Inc. All Rights Reserved.
--------------------------------------------------------------------------------------------
| Tool Version : Vivado v.2019.1.3 (win64) Build 2644227 Wed Sep  4 09:45:24 MDT 2019
| Date         : Sun Nov 24 15:50:05 2019
| Host         : ColinKeenan-PC running 64-bit major release  (build 9200)
| Command      : report_control_sets -verbose -file mcs_top_sampler_control_sets_placed.rpt
| Design       : mcs_top_sampler
| Device       : xc7a100t
--------------------------------------------------------------------------------------------

Control Set Information

Table of Contents
-----------------
1. Summary
2. Histogram
3. Flip-Flop Distribution
4. Detailed Control Set Information

1. Summary
----------

+----------------------------------------------------------+-------+
|                          Status                          | Count |
+----------------------------------------------------------+-------+
| Total control sets                                       |   122 |
|    Minimum number of control sets                        |   122 |
|    Addition due to synthesis replication                 |     0 |
|    Addition due to physical synthesis replication        |     0 |
| Unused register locations in slices containing registers |   321 |
+----------------------------------------------------------+-------+
* Control sets can be merged at opt_design using control_set_merge or merge_equivalent_drivers
** Run report_qor_suggestions for automated merging and remapping suggestions


2. Histogram
------------

+--------------------+-------+
|       Fanout       | Count |
+--------------------+-------+
| Total control sets |   122 |
| >= 0 to < 4        |    20 |
| >= 4 to < 6        |    14 |
| >= 6 to < 8        |     4 |
| >= 8 to < 10       |    16 |
| >= 10 to < 12      |    13 |
| >= 12 to < 14      |    14 |
| >= 14 to < 16      |     2 |
| >= 16              |    39 |
+--------------------+-------+
* Control sets can be remapped at either synth_design or opt_design


3. Flip-Flop Distribution
-------------------------

+--------------+-----------------------+------------------------+-----------------+--------------+
| Clock Enable | Synchronous Set/Reset | Asynchronous Set/Reset | Total Registers | Total Slices |
+--------------+-----------------------+------------------------+-----------------+--------------+
| No           | No                    | No                     |             169 |           61 |
| No           | No                    | Yes                    |             260 |           85 |
| No           | Yes                   | No                     |             129 |           48 |
| Yes          | No                    | No                     |             269 |           79 |
| Yes          | No                    | Yes                    |             811 |          246 |
| Yes          | Yes                   | No                     |             225 |           66 |
+--------------+-----------------------+------------------------+-----------------+--------------+


4. Detailed Control Set Information
-----------------------------------

+-------------------------------------------------------------------+--------------------------------------------------------------------------------------------------------------------------------------------------------------------------------------------------------------+--------------------------------------------------------------------------------------------------------------------------------------------------------------------------------+------------------+----------------+
|                            Clock Signal                           |                                                                                                 Enable Signal                                                                                                |                                                                                Set/Reset Signal                                                                                | Slice Load Count | Bel Load Count |
+-------------------------------------------------------------------+--------------------------------------------------------------------------------------------------------------------------------------------------------------------------------------------------------------+--------------------------------------------------------------------------------------------------------------------------------------------------------------------------------+------------------+----------------+
| ~cpu_unit/inst/mdm_0/U0/No_Dbg_Reg_Access.BUFG_DRCK/Ext_JTAG_DRCK | cpu_unit/inst/mdm_0/U0/MDM_Core_I1/JTAG_CONTROL_I/Use_BSCAN.FDC_I/CE                                                                                                                                         | cpu_unit/inst/mdm_0/U0/MDM_Core_I1/JTAG_CONTROL_I/Use_BSCAN.FDC_I/D_1                                                                                                          |                1 |              1 |
|  clk_IBUF_BUFG                                                    |                                                                                                                                                                                                              | cpu_unit/inst/microblaze_I/U0/MicroBlaze_Core_I/Area.Core/Implement_Debug_Logic.Master_Core.Debug_Area/capture_1                                                               |                1 |              1 |
|  clk_IBUF_BUFG                                                    | mmio_unit/spi_slot9/wr_ss                                                                                                                                                                                    | mmio_unit/adsr_slot13/adsr_unit/AR[0]                                                                                                                                          |                1 |              1 |
|  cpu_unit/inst/mdm_0/U0/No_Dbg_Reg_Access.BUFG_DRCK/Ext_JTAG_DRCK | cpu_unit/inst/mdm_0/U0/Use_E2.BSCAN_I/Use_BSCAN.PORT_Selector_reg[0]                                                                                                                                         | cpu_unit/inst/mdm_0/U0/MDM_Core_I1/JTAG_CONTROL_I/sel_with_scan_reset19_out                                                                                                    |                1 |              1 |
|  clk_IBUF_BUFG                                                    |                                                                                                                                                                                                              | cpu_unit/inst/microblaze_I/U0/MicroBlaze_Core_I/Area.Core/Implement_Debug_Logic.Master_Core.Debug_Area/Area_Debug_Control.Dbg_Inhibit_EX_FDRSE/Using_FPGA.Native_i_1__75_n_0   |                1 |              1 |
|  clk_IBUF_BUFG                                                    |                                                                                                                                                                                                              | cpu_unit/inst/microblaze_I/U0/MicroBlaze_Core_I/Area.Core/Implement_Debug_Logic.Master_Core.Debug_Area/Area_Debug_Control.Stop_CPU_FDRSE/Using_FPGA.Native_i_1__74_n_0         |                1 |              1 |
|  cpu_unit/inst/mdm_0/U0/Dbg_Update_0                              | cpu_unit/inst/microblaze_I/U0/MicroBlaze_Core_I/Area.Core/Implement_Debug_Logic.Master_Core.Debug_Area/Control_Reg_En                                                                                        | cpu_unit/inst/microblaze_I/U0/MicroBlaze_Core_I/Area.Core/Implement_Debug_Logic.Master_Core.Debug_Area/Serial_Dbg_Intf.continue_from_brk_reg_n_0                               |                1 |              1 |
|  clk_IBUF_BUFG                                                    |                                                                                                                                                                                                              | cpu_unit/inst/microblaze_I/U0/MicroBlaze_Core_I/Area.Core/Decode_I/MSR_Rst                                                                                                     |                1 |              1 |
|  clk_IBUF_BUFG                                                    |                                                                                                                                                                                                              | cpu_unit/inst/microblaze_I/U0/MicroBlaze_Core_I/Area.Core/Decode_I/Using_FPGA.New_Carry_MUXCY/ex_Valid_reg                                                                     |                1 |              1 |
|  cpu_unit/inst/mdm_0/U0/Dbg_Update_0                              | cpu_unit/inst/microblaze_I/U0/MicroBlaze_Core_I/Area.Core/Implement_Debug_Logic.Master_Core.Debug_Area/Control_Reg_En                                                                                        | cpu_unit/inst/microblaze_I/U0/MicroBlaze_Core_I/Area.Core/Implement_Debug_Logic.Master_Core.Debug_Area/normal_stop_cmd_rst18_out                                               |                1 |              1 |
|  cpu_unit/inst/mdm_0/U0/Dbg_Update_0                              | cpu_unit/inst/microblaze_I/U0/MicroBlaze_Core_I/Area.Core/Implement_Debug_Logic.Master_Core.Debug_Area/Control_Reg_En                                                                                        | cpu_unit/inst/microblaze_I/U0/MicroBlaze_Core_I/Area.Core/Implement_Debug_Logic.Master_Core.Debug_Area/force_stop_cmd_rst19_out                                                |                1 |              1 |
|  cpu_unit/inst/mdm_0/U0/Dbg_Update_0                              | cpu_unit/inst/microblaze_I/U0/MicroBlaze_Core_I/Area.Core/Implement_Debug_Logic.Master_Core.Debug_Area/Control_Reg_En                                                                                        | cpu_unit/inst/microblaze_I/U0/MicroBlaze_Core_I/Area.Core/Implement_Debug_Logic.Master_Core.Debug_Area/start_single_step_reg_n_0                                               |                1 |              1 |
|  cpu_unit/inst/mdm_0/U0/Dbg_Update_0                              | cpu_unit/inst/microblaze_I/U0/MicroBlaze_Core_I/Area.Core/Implement_Debug_Logic.Master_Core.Debug_Area/Control_Reg_En                                                                                        | cpu_unit/inst/microblaze_I/U0/MicroBlaze_Core_I/Area.Core/Decode_I/no_sleeping1_out                                                                                            |                1 |              1 |
| ~cpu_unit/inst/mdm_0/U0/Dbg_Update_0                              |                                                                                                                                                                                                              | cpu_unit/inst/mdm_0/U0/MDM_Core_I1/JTAG_CONTROL_I/sel_n                                                                                                                        |                1 |              1 |
|  clk_IBUF_BUFG                                                    |                                                                                                                                                                                                              | cpu_unit/inst/microblaze_I/U0/MicroBlaze_Core_I/Area.Core/Implement_Debug_Logic.Master_Core.Debug_Area/Area_Debug_Control.Stop_Instr_Fetch_FDRSE/Using_FPGA.Native_i_1__64_n_0 |                1 |              1 |
|  clk_IBUF_BUFG                                                    | cpu_unit/inst/microblaze_I/U0/MicroBlaze_Core_I/Area.Core/Decode_I/MTSMSR_Write                                                                                                                              | cpu_unit/inst/microblaze_I/U0/MicroBlaze_Core_I/sync_reset                                                                                                                     |                1 |              1 |
|  cpu_unit/inst/mdm_0/U0/Dbg_Update_0                              | cpu_unit/inst/microblaze_I/U0/MicroBlaze_Core_I/Area.Core/Implement_Debug_Logic.Master_Core.Debug_Area/Command_Reg_En                                                                                        | cpu_unit/inst/microblaze_I/U0/MicroBlaze_Core_I/Area.Core/Implement_Debug_Logic.Master_Core.Debug_Area/command_reg_clear                                                       |                1 |              2 |
|  cpu_unit/inst/mdm_0/U0/Dbg_Update_0                              |                                                                                                                                                                                                              |                                                                                                                                                                                |                1 |              3 |
|  clk_IBUF_BUFG                                                    |                                                                                                                                                                                                              | cpu_unit/inst/rst_0/U0/peripheral_reset[0]                                                                                                                                     |                2 |              3 |
|  clk_IBUF_BUFG                                                    | cpu_unit/inst/microblaze_I/U0/MicroBlaze_Core_I/Area.Core/Decode_I/Using_FPGA.of_PipeRun_MuxCY_1/Using_FPGA.Native_2                                                                                         | cpu_unit/inst/microblaze_I/U0/MicroBlaze_Core_I/sync_reset                                                                                                                     |                1 |              3 |
|  clk_IBUF_BUFG                                                    |                                                                                                                                                                                                              | cpu_unit/inst/rst_0/U0/bus_struct_reset[0]                                                                                                                                     |                2 |              4 |
|  cpu_unit/inst/mdm_0/U0/No_Dbg_Reg_Access.BUFG_DRCK/Ext_JTAG_DRCK | cpu_unit/inst/mdm_0/U0/MDM_Core_I1/p_3_out                                                                                                                                                                   | cpu_unit/inst/mdm_0/U0/Use_E2.BSCAN_I/AR[0]                                                                                                                                    |                1 |              4 |
| ~cpu_unit/inst/mdm_0/U0/Dbg_Update_0                              |                                                                                                                                                                                                              | cpu_unit/inst/mdm_0/U0/Use_E2.BSCAN_I/AR[0]                                                                                                                                    |                1 |              4 |
|  clk_IBUF_BUFG                                                    |                                                                                                                                                                                                              | cpu_unit/inst/microblaze_I/U0/MicroBlaze_Core_I/Area.Core/Implement_Debug_Logic.Master_Core.Debug_Area/Area_Debug_Control.Stop_CPU_FDRSE/R                                     |                2 |              4 |
|  cpu_unit/inst/mdm_0/U0/Dbg_Update_0                              | cpu_unit/inst/microblaze_I/U0/MicroBlaze_Core_I/Area.Core/Implement_Debug_Logic.Master_Core.Debug_Area/Control_Reg_En                                                                                        |                                                                                                                                                                                |                2 |              4 |
|  clk_IBUF_BUFG                                                    | mmio_unit/ps2_slot11/ps2_unit/ps2_tx_unit/n_next                                                                                                                                                             | mmio_unit/adsr_slot13/adsr_unit/AR[0]                                                                                                                                          |                2 |              4 |
|  clk_IBUF_BUFG                                                    | mmio_unit/ps2_slot11/ps2_unit/ps2_rx_unit/n_next                                                                                                                                                             | mmio_unit/adsr_slot13/adsr_unit/AR[0]                                                                                                                                          |                1 |              4 |
|  cpu_unit/inst/mdm_0/U0/Dbg_Update_0                              | cpu_unit/inst/mdm_0/U0/MDM_Core_I1/MDM_SEL                                                                                                                                                                   | cpu_unit/inst/mdm_0/U0/Use_E2.BSCAN_I/AR[0]                                                                                                                                    |                1 |              4 |
|  clk_IBUF_BUFG                                                    | mmio_unit/i2c_slot10/i2c_unit/FSM_sequential_state_reg[3]_i_1_n_0                                                                                                                                            | mmio_unit/adsr_slot13/adsr_unit/AR[0]                                                                                                                                          |                2 |              4 |
|  clk_IBUF_BUFG                                                    | mmio_unit/uart_slot1/uart_unit/uart_rx_unit/s_next                                                                                                                                                           | mmio_unit/adsr_slot13/adsr_unit/AR[0]                                                                                                                                          |                3 |              4 |
|  clk_IBUF_BUFG                                                    | mmio_unit/uart_slot1/uart_unit/uart_tx_unit/s_next                                                                                                                                                           | mmio_unit/adsr_slot13/adsr_unit/AR[0]                                                                                                                                          |                2 |              4 |
|  clk_IBUF_BUFG                                                    | mmio_unit/ps2_slot11/ps2_unit/ps2_tx_unit/FSM_onehot_state_reg[4]_i_1_n_0                                                                                                                                    | mmio_unit/adsr_slot13/adsr_unit/AR[0]                                                                                                                                          |                2 |              5 |
|  clk_IBUF_BUFG                                                    | mmio_unit/adsr_slot13/adsr_unit/FSM_onehot_state_reg[4]_i_1__0_n_0                                                                                                                                           | mmio_unit/adsr_slot13/adsr_unit/AR[0]                                                                                                                                          |                2 |              5 |
|  clk_IBUF_BUFG                                                    |                                                                                                                                                                                                              | cpu_unit/inst/rst_0/U0/EXT_LPF/lpf_int                                                                                                                                         |                3 |              5 |
|  cpu_unit/inst/mdm_0/U0/No_Dbg_Reg_Access.BUFG_DRCK/Ext_JTAG_DRCK | cpu_unit/inst/mdm_0/U0/Use_E2.BSCAN_I/Use_BSCAN.command_reg[5][0]                                                                                                                                            |                                                                                                                                                                                |                2 |              6 |
|  cpu_unit/inst/mdm_0/U0/No_Dbg_Reg_Access.BUFG_DRCK/Ext_JTAG_DRCK | cpu_unit/inst/mdm_0/U0/MDM_Core_I1/JTAG_CONTROL_I/Use_BSCAN.FDC_I/Use_BSCAN.command_reg[5][0]                                                                                                                |                                                                                                                                                                                |                2 |              6 |
|  clk_IBUF_BUFG                                                    | cpu_unit/inst/rst_0/U0/SEQ/seq_cnt_en                                                                                                                                                                        | cpu_unit/inst/rst_0/U0/SEQ/SEQ_COUNTER/clear                                                                                                                                   |                1 |              6 |
|  cpu_unit/inst/mdm_0/U0/No_Dbg_Reg_Access.BUFG_DRCK/Ext_JTAG_DRCK | cpu_unit/inst/mdm_0/U0/Use_E2.BSCAN_I/E[0]                                                                                                                                                                   |                                                                                                                                                                                |                2 |              6 |
|  clk_IBUF_BUFG                                                    | mmio_unit/uart_slot1/uart_unit/fifo_rx_unit/c_unit/r_ptr_logic[7]_i_1_n_0                                                                                                                                    | mmio_unit/adsr_slot13/adsr_unit/AR[0]                                                                                                                                          |                4 |              8 |
|  clk_IBUF_BUFG                                                    | mmio_unit/uart_slot1/uart_unit/fifo_rx_unit/c_unit/w_ptr_logic[7]_i_1_n_0                                                                                                                                    | mmio_unit/adsr_slot13/adsr_unit/AR[0]                                                                                                                                          |                3 |              8 |
| ~cpu_unit/inst/mdm_0/U0/Dbg_Update_0                              | cpu_unit/inst/mdm_0/U0/MDM_Core_I1/JTAG_CONTROL_I/Use_BSCAN.command[0]_i_1_n_0                                                                                                                               |                                                                                                                                                                                |                2 |              8 |
|  clk_IBUF_BUFG                                                    | mmio_unit/ps2_slot11/ps2_unit/ps2_rx_unit/E[0]                                                                                                                                                               | mmio_unit/adsr_slot13/adsr_unit/AR[0]                                                                                                                                          |                3 |              8 |
|  clk_IBUF_BUFG                                                    | mmio_unit/ps2_slot11/ps2_unit/ps2_rx_unit/FSM_onehot_state_reg_reg[0]_0[0]                                                                                                                                   | mmio_unit/adsr_slot13/adsr_unit/AR[0]                                                                                                                                          |                3 |              8 |
|  cpu_unit/inst/mdm_0/U0/Dbg_Update_0                              | cpu_unit/inst/mdm_0/U0/MDM_Core_I1/JTAG_CONTROL_I/Use_BSCAN.FDC_I/Use_BSCAN.PORT_Selector_reg[2][0]                                                                                                          |                                                                                                                                                                                |                1 |              8 |
|  clk_IBUF_BUFG                                                    | mmio_unit/uart_slot1/uart_unit/fifo_tx_unit/c_unit/r_ptr_logic[7]_i_1__0_n_0                                                                                                                                 | mmio_unit/adsr_slot13/adsr_unit/AR[0]                                                                                                                                          |                3 |              8 |
|  clk_IBUF_BUFG                                                    | cpu_unit/inst/microblaze_I/U0/MicroBlaze_Core_I/Area.Core/Decode_I/Using_FPGA.of_PipeRun_MuxCY_1/mul_Executing_reg                                                                                           | cpu_unit/inst/microblaze_I/U0/MicroBlaze_Core_I/Area.Core/Decode_I/Using_FPGA.MUXCY_JUMP_CARRY3/S66_out                                                                        |                2 |              8 |
|  clk_IBUF_BUFG                                                    | mmio_unit/uart_slot1/uart_unit/uart_tx_unit/E[0]                                                                                                                                                             | mmio_unit/adsr_slot13/adsr_unit/AR[0]                                                                                                                                          |                2 |              8 |
|  cpu_unit/inst/mdm_0/U0/No_Dbg_Reg_Access.BUFG_DRCK/Ext_JTAG_DRCK | cpu_unit/inst/microblaze_I/U0/MicroBlaze_Core_I/Area.Core/Implement_Debug_Logic.Master_Core.Debug_Area/Using_PC_Breakpoints.All_PC_Brks[0].Serial_Interface_1.address_hit_I/Compare[0].SRLC16E_I/which_pc__0 |                                                                                                                                                                                |                7 |              8 |
|  clk_IBUF_BUFG                                                    | mmio_unit/spi_slot9/spi_unit/si_next                                                                                                                                                                         | mmio_unit/adsr_slot13/adsr_unit/AR[0]                                                                                                                                          |                3 |              8 |
|  cpu_unit/inst/mdm_0/U0/No_Dbg_Reg_Access.BUFG_DRCK/Ext_JTAG_DRCK | cpu_unit/inst/mdm_0/U0/MDM_Core_I1/JTAG_CONTROL_I/tdi_shifter0                                                                                                                                               |                                                                                                                                                                                |                2 |              8 |
|  clk_IBUF_BUFG                                                    | mmio_unit/uart_slot1/uart_unit/uart_tx_unit/b_next_0                                                                                                                                                         | mmio_unit/adsr_slot13/adsr_unit/AR[0]                                                                                                                                          |                2 |              8 |
|  clk_IBUF_BUFG                                                    | mmio_unit/uart_slot1/uart_unit/uart_rx_unit/b_next                                                                                                                                                           | mmio_unit/adsr_slot13/adsr_unit/AR[0]                                                                                                                                          |                3 |              8 |
|  clk_IBUF_BUFG                                                    | mmio_unit/ps2_slot11/ps2_unit/ps2_tx_unit/b_next                                                                                                                                                             | mmio_unit/adsr_slot13/adsr_unit/AR[0]                                                                                                                                          |                3 |              9 |
|  clk_IBUF_BUFG                                                    | mmio_unit/i2c_slot10/i2c_unit/rx_next                                                                                                                                                                        | mmio_unit/adsr_slot13/adsr_unit/AR[0]                                                                                                                                          |                3 |              9 |
|  cpu_unit/inst/mdm_0/U0/No_Dbg_Reg_Access.BUFG_DRCK/Ext_JTAG_DRCK | cpu_unit/inst/mdm_0/U0/MDM_Core_I1/JTAG_CONTROL_I/Use_BSCAN.FDC_I/E[0]                                                                                                                                       |                                                                                                                                                                                |                4 |             10 |
|  clk_IBUF_BUFG                                                    | mmio_unit/ps2_slot11/ps2_unit/ps2_rx_unit/b_next                                                                                                                                                             | mmio_unit/adsr_slot13/adsr_unit/AR[0]                                                                                                                                          |                4 |             10 |
|  clk_IBUF_BUFG                                                    | mmio_unit/pwm_slot6/sel                                                                                                                                                                                      | mmio_unit/adsr_slot13/adsr_unit/AR[0]                                                                                                                                          |                3 |             10 |
|  clk_IBUF_BUFG                                                    | mmio_unit/pwm_slot6/duty_2d_reg                                                                                                                                                                              |                                                                                                                                                                                |                3 |             11 |
|  clk_IBUF_BUFG                                                    | mmio_unit/pwm_slot6/duty_2d_reg[2][10]_i_1_n_0                                                                                                                                                               |                                                                                                                                                                                |                3 |             11 |
|  clk_IBUF_BUFG                                                    | mmio_unit/pwm_slot6/duty_2d_reg[0][10]_i_1_n_0                                                                                                                                                               |                                                                                                                                                                                |                3 |             11 |
|  clk_IBUF_BUFG                                                    | mmio_unit/pwm_slot6/duty_2d_reg[5][10]_i_1_n_0                                                                                                                                                               |                                                                                                                                                                                |                2 |             11 |
|  clk_IBUF_BUFG                                                    | mmio_unit/pwm_slot6/duty_2d_reg[4][10]_i_1_n_0                                                                                                                                                               |                                                                                                                                                                                |                2 |             11 |
|  clk_IBUF_BUFG                                                    | mmio_unit/spi_slot9/spi_unit/n_reg[2]_i_1_n_0                                                                                                                                                                | mmio_unit/adsr_slot13/adsr_unit/AR[0]                                                                                                                                          |                4 |             11 |
|  clk_IBUF_BUFG                                                    | mmio_unit/pwm_slot6/duty_2d_reg[3][10]_i_1_n_0                                                                                                                                                               |                                                                                                                                                                                |                2 |             11 |
|  clk_IBUF_BUFG                                                    | mmio_unit/pwm_slot6/duty_2d_reg[1][10]_i_1_n_0                                                                                                                                                               |                                                                                                                                                                                |                3 |             11 |
|  clk_IBUF_BUFG                                                    | mmio_unit/pwm_slot6/duty_2d_reg[6][10]_i_1_n_0                                                                                                                                                               |                                                                                                                                                                                |                3 |             11 |
|  clk_IBUF_BUFG                                                    | mmio_unit/uart_slot1/wr_dvsr                                                                                                                                                                                 | mmio_unit/adsr_slot13/adsr_unit/AR[0]                                                                                                                                          |                3 |             11 |
|  clk_IBUF_BUFG                                                    | mmio_unit/ps2_slot11/ps2_unit/fifo_unit/c_unit/w_ptr_logic_reg[7]_0                                                                                                                                          |                                                                                                                                                                                |                3 |             12 |
|  clk_IBUF_BUFG                                                    | mmio_unit/ps2_slot11/ps2_unit/fifo_unit/c_unit/w_ptr_logic_reg[6]_0                                                                                                                                          |                                                                                                                                                                                |                3 |             12 |
|  clk_IBUF_BUFG                                                    | mmio_unit/uart_slot1/uart_unit/fifo_tx_unit/c_unit/w_ptr_logic_reg[7]_0                                                                                                                                      |                                                                                                                                                                                |                3 |             12 |
|  clk_IBUF_BUFG                                                    | mmio_unit/uart_slot1/uart_unit/fifo_tx_unit/c_unit/full_logic_reg_1                                                                                                                                          |                                                                                                                                                                                |                3 |             12 |
|  clk_IBUF_BUFG                                                    | mmio_unit/ps2_slot11/ps2_unit/fifo_unit/c_unit/full_logic_reg_1                                                                                                                                              |                                                                                                                                                                                |                3 |             12 |
|  clk_IBUF_BUFG                                                    | mmio_unit/uart_slot1/uart_unit/fifo_rx_unit/c_unit/full_logic_reg_0                                                                                                                                          |                                                                                                                                                                                |                3 |             12 |
|  clk_IBUF_BUFG                                                    | mmio_unit/uart_slot1/uart_unit/fifo_rx_unit/c_unit/w_ptr_logic_reg[7]_0                                                                                                                                      |                                                                                                                                                                                |                3 |             12 |
|  clk_IBUF_BUFG                                                    | mmio_unit/uart_slot1/uart_unit/fifo_rx_unit/c_unit/w_ptr_logic_reg[6]_0                                                                                                                                      |                                                                                                                                                                                |                3 |             12 |
|  clk_IBUF_BUFG                                                    | mmio_unit/uart_slot1/uart_unit/fifo_rx_unit/c_unit/full_logic_reg_1                                                                                                                                          |                                                                                                                                                                                |                3 |             12 |
|  clk_IBUF_BUFG                                                    | mmio_unit/ps2_slot11/ps2_unit/fifo_unit/c_unit/full_logic_reg_2                                                                                                                                              |                                                                                                                                                                                |                3 |             12 |
|  clk_IBUF_BUFG                                                    | mmio_unit/uart_slot1/uart_unit/fifo_tx_unit/c_unit/w_ptr_logic_reg[6]_0                                                                                                                                      |                                                                                                                                                                                |                3 |             12 |
|  clk_IBUF_BUFG                                                    | mmio_unit/uart_slot1/uart_unit/fifo_tx_unit/c_unit/full_logic_reg_2                                                                                                                                          |                                                                                                                                                                                |                3 |             12 |
|  clk_IBUF_BUFG                                                    | mmio_unit/i2c_slot10/i2c_unit/bit_reg[3]_i_1_n_0                                                                                                                                                             | mmio_unit/adsr_slot13/adsr_unit/AR[0]                                                                                                                                          |                4 |             13 |
|  clk_IBUF_BUFG                                                    | mmio_unit/ps2_slot11/ps2_unit/ps2_tx_unit/c_next                                                                                                                                                             | mmio_unit/adsr_slot13/adsr_unit/AR[0]                                                                                                                                          |                3 |             13 |
|  clk_IBUF_BUFG                                                    | cpu_unit/inst/microblaze_I/U0/MicroBlaze_Core_I/Area.Core/Decode_I/Using_FPGA.of_PipeRun_MuxCY_1/Using_FPGA.Native_2                                                                                         |                                                                                                                                                                                |                3 |             15 |
|  clk_IBUF_BUFG                                                    | cpu_unit/inst/microblaze_I/U0/MicroBlaze_Core_I/Area.Core/Decode_I/Using_FPGA.MUXCY_JUMP_CARRY3/PC_Write                                                                                                     | cpu_unit/inst/microblaze_I/U0/MicroBlaze_Core_I/sync_reset                                                                                                                     |                5 |             15 |
|  clk_IBUF_BUFG                                                    | mmio_unit/i2c_slot10/wr_dvsr                                                                                                                                                                                 | mmio_unit/adsr_slot13/adsr_unit/AR[0]                                                                                                                                          |                5 |             16 |
|  clk_IBUF_BUFG                                                    | mmio_unit/ddfs_slot12/wr_env                                                                                                                                                                                 | mmio_unit/adsr_slot13/adsr_unit/AR[0]                                                                                                                                          |                6 |             16 |
|  clk_IBUF_BUFG                                                    | mmio_unit/spi_slot9/spi_unit/c_reg[15]_i_1_n_0                                                                                                                                                               | mmio_unit/adsr_slot13/adsr_unit/AR[0]                                                                                                                                          |                2 |             16 |
|  clk_IBUF_BUFG                                                    | mmio_unit/xadc_slot5/xadc_unit/channel[0]                                                                                                                                                                    | mmio_unit/adsr_slot13/adsr_unit/AR[0]                                                                                                                                          |                6 |             16 |
|  clk_IBUF_BUFG                                                    | mmio_unit/xadc_slot5/xadc_unit/channel[1]                                                                                                                                                                    | mmio_unit/adsr_slot13/adsr_unit/AR[0]                                                                                                                                          |                3 |             16 |
|  clk_IBUF_BUFG                                                    | mmio_unit/xadc_slot5/xadc_unit/channel[2]                                                                                                                                                                    | mmio_unit/adsr_slot13/adsr_unit/AR[0]                                                                                                                                          |                4 |             16 |
|  clk_IBUF_BUFG                                                    | mmio_unit/xadc_slot5/adc0_out_reg[15]_i_1_n_0                                                                                                                                                                | mmio_unit/adsr_slot13/adsr_unit/AR[0]                                                                                                                                          |                6 |             16 |
|  clk_IBUF_BUFG                                                    | mmio_unit/xadc_slot5/adc3_out_reg[15]_i_1_n_0                                                                                                                                                                | mmio_unit/adsr_slot13/adsr_unit/AR[0]                                                                                                                                          |                3 |             16 |
|  clk_IBUF_BUFG                                                    | mmio_unit/xadc_slot5/vcc_out_reg[15]_i_1_n_0                                                                                                                                                                 | mmio_unit/adsr_slot13/adsr_unit/AR[0]                                                                                                                                          |                6 |             16 |
|  clk_IBUF_BUFG                                                    | mmio_unit/gpo_slot2/wr_en                                                                                                                                                                                    | mmio_unit/adsr_slot13/adsr_unit/AR[0]                                                                                                                                          |                6 |             16 |
|  clk_IBUF_BUFG                                                    | cpu_unit/inst/microblaze_I/U0/MicroBlaze_Core_I/Area.Core/Decode_I/PreFetch_Buffer_I/PreFetch_Buffers[0].SRL16E_I/E[0]                                                                                       | cpu_unit/inst/microblaze_I/U0/MicroBlaze_Core_I/sync_reset                                                                                                                     |                9 |             16 |
|  clk_IBUF_BUFG                                                    | mmio_unit/spi_slot9/wr_ctrl                                                                                                                                                                                  | mmio_unit/adsr_slot13/adsr_unit/AR[0]                                                                                                                                          |                4 |             18 |
|  cpu_unit/inst/mdm_0/U0/No_Dbg_Reg_Access.BUFG_DRCK/Ext_JTAG_DRCK |                                                                                                                                                                                                              | cpu_unit/inst/mdm_0/U0/Use_E2.BSCAN_I/shift_n_reset1_out                                                                                                                       |                3 |             23 |
|  clk_IBUF_BUFG                                                    | mmio_unit/ddfs_slot12/wr_fccw                                                                                                                                                                                | mmio_unit/adsr_slot13/adsr_unit/AR[0]                                                                                                                                          |                6 |             30 |
|  clk_IBUF_BUFG                                                    | mmio_unit/ddfs_slot12/wr_focw                                                                                                                                                                                | mmio_unit/adsr_slot13/adsr_unit/AR[0]                                                                                                                                          |                6 |             30 |
|  clk_IBUF_BUFG                                                    | mmio_unit/adsr_slot13/adsr_unit/a_next                                                                                                                                                                       | mmio_unit/adsr_slot13/adsr_unit/AR[0]                                                                                                                                          |               14 |             32 |
|  clk_IBUF_BUFG                                                    | mmio_unit/adsr_slot13/adsr_unit/t_next                                                                                                                                                                       | mmio_unit/adsr_slot13/adsr_unit/AR[0]                                                                                                                                          |                8 |             32 |
|  clk_IBUF_BUFG                                                    | mmio_unit/adsr_slot13/wr_rel                                                                                                                                                                                 | mmio_unit/adsr_slot13/adsr_unit/AR[0]                                                                                                                                          |               10 |             32 |
|  clk_IBUF_BUFG                                                    | mmio_unit/adsr_slot13/wr_atk                                                                                                                                                                                 | mmio_unit/adsr_slot13/adsr_unit/AR[0]                                                                                                                                          |               13 |             32 |
|  clk_IBUF_BUFG                                                    | mmio_unit/adsr_slot13/wr_dcy                                                                                                                                                                                 | mmio_unit/adsr_slot13/adsr_unit/AR[0]                                                                                                                                          |                8 |             32 |
|  clk_IBUF_BUFG                                                    | mmio_unit/adsr_slot13/wr_sus_level                                                                                                                                                                           | mmio_unit/adsr_slot13/adsr_unit/AR[0]                                                                                                                                          |               12 |             32 |
|  clk_IBUF_BUFG                                                    | cpu_unit/inst/microblaze_I/U0/MicroBlaze_Core_I/Area.Core/Implement_Debug_Logic.Master_Core.Debug_Area/Area_Debug_Control.Stop_Instr_Fetch_FDRSE/E[0]                                                        | cpu_unit/inst/microblaze_I/U0/MicroBlaze_Core_I/sync_reset                                                                                                                     |                7 |             32 |
|  clk_IBUF_BUFG                                                    | cpu_unit/inst/microblaze_I/U0/MicroBlaze_Core_I/Area.Core/Decode_I/Using_FPGA.of_PipeRun_MuxCY_1/mul_Executing_reg                                                                                           |                                                                                                                                                                                |               16 |             32 |
|  cpu_unit/inst/mdm_0/U0/No_Dbg_Reg_Access.BUFG_DRCK/Ext_JTAG_DRCK | cpu_unit/inst/microblaze_I/U0/MicroBlaze_Core_I/Area.Core/Implement_Debug_Logic.Master_Core.Debug_Area/New_Dbg_Instr_TCK                                                                                     |                                                                                                                                                                                |                9 |             32 |
|  clk_IBUF_BUFG                                                    | mmio_unit/led_slot8/wr_d0                                                                                                                                                                                    | mmio_unit/adsr_slot13/adsr_unit/AR[0]                                                                                                                                          |                8 |             32 |
|  clk_IBUF_BUFG                                                    | mmio_unit/led_slot8/wr_d1                                                                                                                                                                                    | mmio_unit/adsr_slot13/adsr_unit/AR[0]                                                                                                                                          |                8 |             32 |
|  clk_IBUF_BUFG                                                    | mmio_unit/adsr_slot13/wr_sus_time                                                                                                                                                                            | mmio_unit/adsr_slot13/adsr_unit/AR[0]                                                                                                                                          |                8 |             32 |
|  clk_IBUF_BUFG                                                    | mmio_unit/pwm_slot6/dvsr_en                                                                                                                                                                                  | mmio_unit/adsr_slot13/adsr_unit/AR[0]                                                                                                                                          |                6 |             32 |
|  clk_IBUF_BUFG                                                    |                                                                                                                                                                                                              | cpu_unit/inst/iomodule_0/U0/Using_IO_Bus.io_bus_read_data[31]_i_1_n_0                                                                                                          |               13 |             32 |
|  cpu_unit/inst/mdm_0/U0/No_Dbg_Reg_Access.BUFG_DRCK/Ext_JTAG_DRCK | cpu_unit/inst/mdm_0/U0/Use_E2.BSCAN_I/Use_BSCAN.PORT_Selector_reg[0]                                                                                                                                         |                                                                                                                                                                                |               13 |             46 |
|  clk_IBUF_BUFG                                                    | cpu_unit/inst/microblaze_I/U0/MicroBlaze_Core_I/Area.Core/Decode_I/Using_FPGA.clean_iReady_MuxCY/IReady                                                                                                      |                                                                                                                                                                                |               12 |             47 |
|  clk_IBUF_BUFG                                                    | mmio_unit/timer_slot0/count_reg[47]_i_1_n_0                                                                                                                                                                  | mmio_unit/adsr_slot13/adsr_unit/AR[0]                                                                                                                                          |               11 |             48 |
|  clk_IBUF_BUFG                                                    | cpu_unit/inst/iomodule_0/U0/p_22_out                                                                                                                                                                         | cpu_unit/inst/rst_0/U0/peripheral_reset[0]                                                                                                                                     |               18 |             52 |
|  clk_IBUF_BUFG                                                    |                                                                                                                                                                                                              | cpu_unit/inst/microblaze_I/U0/MicroBlaze_Core_I/sync_reset                                                                                                                     |               21 |             76 |
|  cpu_unit/inst/mdm_0/U0/No_Dbg_Reg_Access.BUFG_DRCK/Ext_JTAG_DRCK |                                                                                                                                                                                                              |                                                                                                                                                                                |               29 |             80 |
|  clk_IBUF_BUFG                                                    | cpu_unit/inst/microblaze_I/U0/MicroBlaze_Core_I/Area.Core/Decode_I/Using_FPGA.of_PipeRun_MuxCY_1/mul_Executing_reg                                                                                           | cpu_unit/inst/microblaze_I/U0/MicroBlaze_Core_I/sync_reset                                                                                                                     |               21 |             91 |
|  clk_IBUF_BUFG                                                    |                                                                                                                                                                                                              |                                                                                                                                                                                |               34 |            103 |
|  clk_IBUF_BUFG                                                    | cpu_unit/inst/microblaze_I/U0/MicroBlaze_Core_I/Area.Core/Decode_I/Reg_Write                                                                                                                                 |                                                                                                                                                                                |               32 |            128 |
|  clk_IBUF_BUFG                                                    |                                                                                                                                                                                                              | mmio_unit/adsr_slot13/adsr_unit/AR[0]                                                                                                                                          |               79 |            231 |
+-------------------------------------------------------------------+--------------------------------------------------------------------------------------------------------------------------------------------------------------------------------------------------------------+--------------------------------------------------------------------------------------------------------------------------------------------------------------------------------+------------------+----------------+


